%YAML 1.1
%TAG !u! tag:unity3d.com,2011:
--- !u!114 &11400000
MonoBehaviour:
  m_ObjectHideFlags: 0
  m_PrefabParentObject: {fileID: 0}
  m_PrefabInternal: {fileID: 0}
  m_GameObject: {fileID: 0}
  m_Enabled: 1
  m_EditorHideFlags: 0
  m_Script: {fileID: 11500000, guid: b83ecd5d5b839470785ea023279af3c5, type: 3}
  m_Name: ARCoreCameraConfigFilter
  m_EditorClassIdentifier: 
  TargetCameraFramerate:
    Target30FPS: 1
    Target60FPS: 1
  DepthSensorUsage:
    RequireAndUse: 1
    DoNotUse: 1
